
(footprint PSON65P250X250X100-8N (layer F.Cu) (tedit 65834F44)
  (descr "2.5 mm x 2.5 mm x 0.93 mm metal lid LGA")
  (attr smd)
  (fp_text reference REF** (at -0.235245 -1.866763 0) (layer F.SilkS)
    (effects (font (size 0.321721259843 0.321721259843) (thickness 0.15)))
  )
  (fp_text value PSON65P250X250X100-8N (at 3.0777705 1.8068595 0) (layer F.Fab)
    (effects (font (size 0.321103149606 0.321103149606) (thickness 0.15)))
  )
  (pad 3 smd roundrect (roundrect_rratio 0.06) (at 0.97 0.325) (size 0.49 0.45) (layers F.Cu F.Mask F.Paste) (solder_mask_margin 0.102))
  (pad 2 smd roundrect (roundrect_rratio 0.06) (at 0.97 -0.325) (size 0.49 0.45) (layers F.Cu F.Mask F.Paste) (solder_mask_margin 0.102))
  (pad 1 smd roundrect (roundrect_rratio 0.06) (at 0.97 -0.975) (size 0.49 0.45) (layers F.Cu F.Mask F.Paste) (solder_mask_margin 0.102))
  (pad 4 smd roundrect (roundrect_rratio 0.06) (at 0.97 0.975) (size 0.49 0.45) (layers F.Cu F.Mask F.Paste) (solder_mask_margin 0.102))
  (pad 6 smd roundrect (roundrect_rratio 0.06) (at -0.97 0.325) (size 0.49 0.45) (layers F.Cu F.Mask F.Paste) (solder_mask_margin 0.102))
  (pad 7 smd roundrect (roundrect_rratio 0.06) (at -0.97 -0.325) (size 0.49 0.45) (layers F.Cu F.Mask F.Paste) (solder_mask_margin 0.102))
  (pad 8 smd roundrect (roundrect_rratio 0.06) (at -0.97 -0.975) (size 0.49 0.45) (layers F.Cu F.Mask F.Paste) (solder_mask_margin 0.102))
  (pad 5 smd roundrect (roundrect_rratio 0.06) (at -0.97 0.975) (size 0.49 0.45) (layers F.Cu F.Mask F.Paste) (solder_mask_margin 0.102))
  (fp_line (start -1.3 -1.3) (end -1.3 1.3) (layer F.Fab) (width 0.127))
  (fp_line (start -1.3 1.3) (end 1.3 1.3) (layer F.Fab) (width 0.127))
  (fp_line (start 1.3 1.3) (end 1.3 -1.3) (layer F.Fab) (width 0.127))
  (fp_line (start 1.3 -1.3) (end -1.3 -1.3) (layer F.Fab) (width 0.127))
  (fp_line (start -1.3 1.385) (end 1.3 1.385) (layer F.SilkS) (width 0.127))
  (fp_line (start -1.3 -1.385) (end 1.3 -1.385) (layer F.SilkS) (width 0.127))
  (fp_circle (center 1.6 -1.0) (end 1.65 -1.0) (layer F.SilkS) (width 0.2))
  (fp_line (start -1.55 -1.55) (end 1.55 -1.55) (layer F.CrtYd) (width 0.05))
  (fp_line (start 1.55 -1.55) (end 1.55 1.55) (layer F.CrtYd) (width 0.05))
  (fp_line (start 1.55 1.55) (end -1.55 1.55) (layer F.CrtYd) (width 0.05))
  (fp_line (start -1.55 1.55) (end -1.55 -1.55) (layer F.CrtYd) (width 0.05))
  (fp_circle (center 1.0 -1.0) (end 1.05 -1.0) (layer F.Fab) (width 0.2))
)